<?xml version="1.0" standalone="no"?>
<!DOCTYPE svg PUBLIC "-//W3C//DTD SVG 1.1//EN" "http://www.w3.org/Graphics/SVG/1.1/DTD/svg11.dtd" >
<svg xmlns="http://www.w3.org/2000/svg">
<defs>
  <font id="flaticon" horiz-adv-x="300">
    <font-face font-family="flaticon"
      units-per-em="300" ascent="300"
      descent="0" />
    <missing-glyph horiz-adv-x="0" />
    <glyph glyph-name="001-facebook"
      unicode="&#xF101;"
      horiz-adv-x="300" d="M199.9625 250.1875H227.35V297.8875C222.625 298.5375 206.375 300 187.45 300C147.9625 300 120.9125 275.1625 120.9125 229.5125V187.5H77.3375V134.175H120.9125V0H174.3375V134.1625H216.15L222.7875 187.4875H174.325V224.225C174.3375 239.6375 178.4875 250.1875 199.9625 250.1875z" />
    <glyph glyph-name="001-facebook-1"
      unicode="&#x30;&#x30;&#x31;&#x2D;&#x66;&#x61;&#x63;&#x65;&#x62;&#x6F;&#x6F;&#x6B;"
      horiz-adv-x="300" d="M199.9625 250.1875H227.35V297.8875C222.625 298.5375 206.375 300 187.45 300C147.9625 300 120.9125 275.1625 120.9125 229.5125V187.5H77.3375V134.175H120.9125V0H174.3375V134.1625H216.15L222.7875 187.4875H174.325V224.225C174.3375 239.6375 178.4875 250.1875 199.9625 250.1875z" />
    <glyph glyph-name="002-twitter"
      unicode="&#xF102;"
      horiz-adv-x="300" d="M269.175 211.0875C281.375 219.75 291.6375 230.5625 300 243.0125V243.025C288.8375 238.1375 276.9625 234.8875 264.5625 233.3125C277.3125 240.925 287.05 252.8875 291.625 267.3C279.7375 260.2125 266.6125 255.2125 252.625 252.4125C241.3375 264.4375 225.25 271.875 207.7 271.875C173.65 271.875 146.2375 244.2375 146.2375 210.3625C146.2375 205.4875 146.65 200.8 147.6625 196.3375C96.5375 198.8375 51.2875 223.3375 20.8875 260.675C15.5875 251.4625 12.4625 240.925 12.4625 229.5875C12.4625 208.2875 23.425 189.4125 39.7875 178.475C29.9 178.6625 20.2125 181.5375 12 186.05V185.375C12 155.4875 33.3125 130.6625 61.275 124.9375C56.2625 123.5625 50.8125 122.9125 45.15 122.9125C41.2125 122.9125 37.2375 123.1375 33.5125 123.9625C41.475 99.6125 64.1 81.7 90.975 81.1125C70.05 64.75 43.475 54.8875 14.7125 54.8875C9.675 54.8875 4.8375 55.1125 0 55.725C27.25 38.1625 59.525 28.125 94.35 28.125C202.8875 28.125 273.625 118.675 269.175 211.0875z" />
    <glyph glyph-name="002-twitter-1"
      unicode="&#x30;&#x30;&#x32;&#x2D;&#x74;&#x77;&#x69;&#x74;&#x74;&#x65;&#x72;"
      horiz-adv-x="300" d="M269.175 211.0875C281.375 219.75 291.6375 230.5625 300 243.0125V243.025C288.8375 238.1375 276.9625 234.8875 264.5625 233.3125C277.3125 240.925 287.05 252.8875 291.625 267.3C279.7375 260.2125 266.6125 255.2125 252.625 252.4125C241.3375 264.4375 225.25 271.875 207.7 271.875C173.65 271.875 146.2375 244.2375 146.2375 210.3625C146.2375 205.4875 146.65 200.8 147.6625 196.3375C96.5375 198.8375 51.2875 223.3375 20.8875 260.675C15.5875 251.4625 12.4625 240.925 12.4625 229.5875C12.4625 208.2875 23.425 189.4125 39.7875 178.475C29.9 178.6625 20.2125 181.5375 12 186.05V185.375C12 155.4875 33.3125 130.6625 61.275 124.9375C56.2625 123.5625 50.8125 122.9125 45.15 122.9125C41.2125 122.9125 37.2375 123.1375 33.5125 123.9625C41.475 99.6125 64.1 81.7 90.975 81.1125C70.05 64.75 43.475 54.8875 14.7125 54.8875C9.675 54.8875 4.8375 55.1125 0 55.725C27.25 38.1625 59.525 28.125 94.35 28.125C202.8875 28.125 273.625 118.675 269.175 211.0875z" />
    <glyph glyph-name="003-youtube"
      unicode="&#xF103;"
      horiz-adv-x="300" d="M284.6922270510563 220.3657671554252C281.4512605073819 232.4264568914956 271.9515204292365 241.9337656891496 259.9043261555798 245.1813369501467C237.8956228457129 251.2091045454546 149.8590926630199 251.2091045454546 149.8590926630199 251.2091045454546S61.8259954878713 251.2091045454546 39.8172921780043 245.4098700879766C28.0018404155396 242.1657351906159 18.2703578262023 232.4247387096774 15.0293912825278 220.3657671554252C9.2375366568915 198.3372664222874 9.2375366568915 152.6530425219942 9.2375366568915 152.6530425219942S9.2375366568915 106.7385677419355 15.0293912825278 84.9403178885631C18.2737908337466 72.8813463343109 27.7700974648945 63.3740375366569 39.8190086817765 60.1264662756598C62.0577379990632 54.0969804985337 149.8625256705642 54.0969804985337 149.8625256705642 54.0969804985337S237.8956228457129 54.0969804985337 259.9043261555798 59.8962149560117C271.9532373724618 63.1420684750733 281.4512605073818 72.6493768328446 284.6956600586006 84.7083483870968C290.4857981804649 106.7385677419355 290.4857981804649 152.4210730205278 290.4857981804649 152.4210730205278S290.7175411311099 198.3372664222874 284.6922270510563 220.3657671554252zM121.830225223869 110.4483598240469V194.8577252199414L195.0369301002982 152.6530425219942zM121.830225223869 110.4483598240469" />
    <glyph glyph-name="003-youtube-1"
      unicode="&#x30;&#x30;&#x33;&#x2D;&#x79;&#x6F;&#x75;&#x74;&#x75;&#x62;&#x65;"
      horiz-adv-x="300" d="M284.6922270510563 220.3657671554252C281.4512605073819 232.4264568914956 271.9515204292365 241.9337656891496 259.9043261555798 245.1813369501467C237.8956228457129 251.2091045454546 149.8590926630199 251.2091045454546 149.8590926630199 251.2091045454546S61.8259954878713 251.2091045454546 39.8172921780043 245.4098700879766C28.0018404155396 242.1657351906159 18.2703578262023 232.4247387096774 15.0293912825278 220.3657671554252C9.2375366568915 198.3372664222874 9.2375366568915 152.6530425219942 9.2375366568915 152.6530425219942S9.2375366568915 106.7385677419355 15.0293912825278 84.9403178885631C18.2737908337466 72.8813463343109 27.7700974648945 63.3740375366569 39.8190086817765 60.1264662756598C62.0577379990632 54.0969804985337 149.8625256705642 54.0969804985337 149.8625256705642 54.0969804985337S237.8956228457129 54.0969804985337 259.9043261555798 59.8962149560117C271.9532373724618 63.1420684750733 281.4512605073818 72.6493768328446 284.6956600586006 84.7083483870968C290.4857981804649 106.7385677419355 290.4857981804649 152.4210730205278 290.4857981804649 152.4210730205278S290.7175411311099 198.3372664222874 284.6922270510563 220.3657671554252zM121.830225223869 110.4483598240469V194.8577252199414L195.0369301002982 152.6530425219942zM121.830225223869 110.4483598240469" />
    <glyph glyph-name="004-menu"
      unicode="&#xF104;"
      horiz-adv-x="300" d="M287.5 137.75939921875H12.5C5.59997578125 137.75939921875 0 143.359375 0 150.25939921875S5.59997578125 162.75939921875 12.5 162.75939921875H287.5C294.4000242187501 162.75939921875 300 157.1594234375 300 150.25939921875S294.40002421875 137.75939921875 287.5 137.75939921875zM287.5 137.75939921875M287.5 233.59375H12.5C5.59997578125 233.59375 0 239.19372578125 0 246.09375S5.59997578125 258.59375 12.5 258.59375H287.5C294.4000242187501 258.59375 300 252.99377421875 300 246.09375S294.40002421875 233.59375 287.5 233.59375zM287.5 233.59375M287.5 41.92810078125H12.5C5.59997578125 41.92810078125 0 47.5280765625001 0 54.42810078125S5.59997578125 66.92810078125 12.5 66.92810078125H287.5C294.4000242187501 66.92810078125 300 61.328125 300 54.42810078125S294.40002421875 41.92810078125 287.5 41.92810078125zM287.5 41.92810078125" />
    <glyph glyph-name="004-menu-1"
      unicode="&#x30;&#x30;&#x34;&#x2D;&#x6D;&#x65;&#x6E;&#x75;"
      horiz-adv-x="300" d="M287.5 137.75939921875H12.5C5.59997578125 137.75939921875 0 143.359375 0 150.25939921875S5.59997578125 162.75939921875 12.5 162.75939921875H287.5C294.4000242187501 162.75939921875 300 157.1594234375 300 150.25939921875S294.40002421875 137.75939921875 287.5 137.75939921875zM287.5 137.75939921875M287.5 233.59375H12.5C5.59997578125 233.59375 0 239.19372578125 0 246.09375S5.59997578125 258.59375 12.5 258.59375H287.5C294.4000242187501 258.59375 300 252.99377421875 300 246.09375S294.40002421875 233.59375 287.5 233.59375zM287.5 233.59375M287.5 41.92810078125H12.5C5.59997578125 41.92810078125 0 47.5280765625001 0 54.42810078125S5.59997578125 66.92810078125 12.5 66.92810078125H287.5C294.4000242187501 66.92810078125 300 61.328125 300 54.42810078125S294.40002421875 41.92810078125 287.5 41.92810078125zM287.5 41.92810078125" />
    <glyph glyph-name="005-close"
      unicode="&#xF105;"
      horiz-adv-x="300" d="M15.4679961414791 -0.0007666903917C11.5152733118971 -0.0007666903917 7.5625504823151 1.5023264472535 4.5593845659164 4.5273482320296C-1.469554340836 10.5547884186868 -1.469554340836 20.3267753391094 4.5593845659164 26.3542155257665L273.7515067524116 295.4794198600072C279.780445659164 301.5068600466643 289.5548633440515 301.5068600466643 295.5838022508039 295.4794198600072S301.6127411575563 279.6799927529274 295.5838022508039 273.6487846928608L26.3954479099678 4.5273482320296C23.3696739549839 1.5211619567392 19.4169511254019 -0.0007666903917 15.4679961414791 -0.0007666903917zM15.4679961414791 -0.0007666903917M284.6789594855306 -0.0007666903917C280.7262356913183 -0.0007666903917 276.7772807073955 1.5023264472535 273.7703479099678 4.5273482320296L4.5593845659163 273.6487846928608C-1.4695543408361 279.6799927529274 -1.4695543408361 289.45197967335 4.5593845659163 295.4794198600071S20.3627411575562 301.5068600466643 26.3954479099678 295.4794198600071L295.5838022508039 26.3542155257665C301.6127411575563 20.3267753391094 301.6127411575563 10.5547884186868 295.5838022508039 4.5273482320296C292.5580282958199 1.5211619567392 288.6090733118971 -0.0007666903917 284.6789594855306 -0.0007666903917zM284.6789594855306 -0.0007666903917" />
    <glyph glyph-name="005-close-1"
      unicode="&#x30;&#x30;&#x35;&#x2D;&#x63;&#x6C;&#x6F;&#x73;&#x65;"
      horiz-adv-x="300" d="M15.4679961414791 -0.0007666903917C11.5152733118971 -0.0007666903917 7.5625504823151 1.5023264472535 4.5593845659164 4.5273482320296C-1.469554340836 10.5547884186868 -1.469554340836 20.3267753391094 4.5593845659164 26.3542155257665L273.7515067524116 295.4794198600073C279.780445659164 301.5068600466643 289.5548633440515 301.5068600466643 295.5838022508039 295.4794198600073S301.6127411575563 279.6799927529274 295.5838022508039 273.6487846928608L26.3954479099678 4.5273482320296C23.3696739549839 1.5211619567392 19.4169511254019 -0.0007666903917 15.4679961414791 -0.0007666903917zM15.4679961414791 -0.0007666903917M284.6789594855306 -0.0007666903917C280.7262356913183 -0.0007666903917 276.7772807073955 1.5023264472535 273.7703479099678 4.5273482320296L4.5593845659163 273.6487846928608C-1.4695543408361 279.6799927529274 -1.4695543408361 289.45197967335 4.5593845659163 295.4794198600071S20.3627411575562 301.5068600466643 26.3954479099678 295.4794198600071L295.5838022508039 26.3542155257665C301.6127411575563 20.3267753391094 301.6127411575563 10.5547884186868 295.5838022508039 4.5273482320296C292.5580282958199 1.5211619567392 288.6090733118971 -0.0007666903917 284.6789594855306 -0.0007666903917zM284.6789594855306 -0.0007666903917" />
    <glyph glyph-name="006-left-arrow"
      unicode="&#xF106;"
      horiz-adv-x="300" d="M97.0589826839827 149.9303300865801L227.4255952380953 280.2969426406927C231.9324945887446 284.8045183982684 231.9324945887446 292.1124188311689 227.4255952380953 296.6199945887446C222.9173430735931 301.1262175324676 215.610119047619 301.1262175324676 211.1025432900433 296.6199945887446L72.5744047619048 158.091856060606C68.0681818181818 153.5842803030303 68.0681818181818 146.2763798701299 72.5744047619048 141.7688041125541L211.1025432900433 3.2406655844155C215.6885822510823 -1.188446969697 222.9964826839827 -1.0612824675325 227.4255952380953 3.5247564935065C231.7458062770563 7.9985119047619 231.7458062770563 15.0906385281385 227.4255952380953 19.5637175324675L97.0589826839827 149.9303300865801z" />
    <glyph glyph-name="006-left-arrow-1"
      unicode="&#x30;&#x30;&#x36;&#x2D;&#x6C;&#x65;&#x66;&#x74;&#x2D;&#x61;&#x72;&#x72;&#x6F;&#x77;"
      horiz-adv-x="300" d="M97.0589826839827 149.9303300865801L227.4255952380953 280.2969426406927C231.9324945887446 284.8045183982684 231.9324945887446 292.1124188311689 227.4255952380953 296.6199945887446C222.9173430735931 301.1262175324676 215.610119047619 301.1262175324676 211.1025432900433 296.6199945887446L72.5744047619048 158.091856060606C68.0681818181818 153.5842803030303 68.0681818181818 146.2763798701299 72.5744047619048 141.7688041125541L211.1025432900433 3.2406655844155C215.6885822510823 -1.188446969697 222.9964826839827 -1.0612824675325 227.4255952380953 3.5247564935065C231.7458062770563 7.9985119047619 231.7458062770563 15.0906385281385 227.4255952380953 19.5637175324675L97.0589826839827 149.9303300865801z" />
    <glyph glyph-name="007-next"
      unicode="&#xF107;"
      horiz-adv-x="300" d="M227.5918844067016 158.2323897172277L88.8330514333929 296.6074351272066C84.2867801297651 301.1384721153433 76.9262620067891 301.1308549575978 72.3876078609068 296.5839977187589C67.8524693262917 292.0377264151312 67.8641880305155 284.6731067456768 72.4110452693544 280.1385541462729L202.9105355057207 149.9994140647888L72.4063577876649 19.8608599185159C67.8600864840372 15.3257213839008 67.8483677798134 7.9657891961359 72.3829203792173 3.418931957297C74.6581068042703 1.1396439857657 77.6387592235968 0 80.6194116429233 0C83.5924469045043 0 86.561380619607 1.1320268280202 88.8324654981817 3.3954945488495L227.5918844067015 141.7670243475612C229.7815242909208 143.9455314627678 231.0102304287874 146.9103636313921 231.0102304287874 149.9994140647889S229.7780086796536 156.0497810555428 227.5918844067016 158.2323897172277z" />
    <glyph glyph-name="007-next-1"
      unicode="&#x30;&#x30;&#x37;&#x2D;&#x6E;&#x65;&#x78;&#x74;"
      horiz-adv-x="300" d="M227.5918844067016 158.2323897172277L88.8330514333929 296.6074351272066C84.2867801297651 301.1384721153433 76.9262620067891 301.1308549575978 72.3876078609068 296.5839977187589C67.8524693262917 292.0377264151312 67.8641880305155 284.6731067456768 72.4110452693544 280.1385541462729L202.9105355057207 149.9994140647888L72.4063577876649 19.8608599185159C67.8600864840372 15.3257213839008 67.8483677798134 7.9657891961359 72.3829203792173 3.418931957297C74.6581068042703 1.1396439857657 77.6387592235968 0 80.6194116429233 0C83.5924469045043 0 86.561380619607 1.1320268280202 88.8324654981817 3.3954945488495L227.5918844067015 141.7670243475612C229.7815242909208 143.9455314627678 231.0102304287874 146.9103636313921 231.0102304287874 149.9994140647889S229.7780086796536 156.0497810555428 227.5918844067016 158.2323897172277z" />
    <glyph glyph-name="008-down-arrow"
      unicode="&#xF108;"
      horiz-adv-x="300" d="M295.2048390637322 223.7884047837787L285.3779299018691 233.6836071837983C282.2852218310718 236.7738762103757 278.1705542321482 238.4763290758462 273.7729575037196 238.4763290758462C269.3777998195107 238.4763290758462 265.2582541321475 236.7738762103757 262.1655460613501 233.6836071837983L150.0670737160465 121.5802567500549L37.8393320270896 233.8079984390117C34.7515020447321 236.8982674655892 30.6319563573688 238.5982812868397 26.2367986731599 238.5982812868397S17.7196562573679 236.8982674655892 14.6293872307905 233.8079984390117L4.8000390247075 223.973772144489C-1.6000130082358 217.5785981999854 -1.6000130082358 207.1614403369133 4.8000390247075 200.7662663924097L138.4206375661591 66.6651761396434C141.5084675485166 63.5773461572858 145.6231351474402 61.4017187131603 150.057317539167 61.4017187131603H150.1085374677843C154.506134196213 61.4017187131603 158.6208017951365 63.5797852015057 161.7086317774941 66.6651761396434L295.2048390637322 200.4028488036488C298.2975471345295 203.4906787860064 299.9951219115602 207.7297376401434 300 212.1248953243522C300 216.5224920527809 298.2975471345296 220.703013845641 295.2048390637322 223.7884047837787z" />
    <glyph glyph-name="008-down-arrow-1"
      unicode="&#x30;&#x30;&#x38;&#x2D;&#x64;&#x6F;&#x77;&#x6E;&#x2D;&#x61;&#x72;&#x72;&#x6F;&#x77;"
      horiz-adv-x="300" d="M295.2048390637322 223.7884047837787L285.3779299018691 233.6836071837983C282.2852218310718 236.7738762103757 278.1705542321482 238.4763290758462 273.7729575037196 238.4763290758462C269.3777998195107 238.4763290758462 265.2582541321475 236.7738762103757 262.1655460613501 233.6836071837983L150.0670737160465 121.5802567500549L37.8393320270896 233.8079984390117C34.7515020447321 236.8982674655892 30.6319563573688 238.5982812868397 26.2367986731599 238.5982812868397S17.7196562573679 236.8982674655892 14.6293872307905 233.8079984390117L4.8000390247075 223.973772144489C-1.6000130082358 217.5785981999854 -1.6000130082358 207.1614403369133 4.8000390247075 200.7662663924097L138.4206375661591 66.6651761396434C141.5084675485166 63.5773461572858 145.6231351474402 61.4017187131603 150.057317539167 61.4017187131603H150.1085374677843C154.506134196213 61.4017187131603 158.6208017951365 63.5797852015057 161.7086317774941 66.6651761396434L295.2048390637322 200.4028488036488C298.2975471345295 203.4906787860064 299.9951219115602 207.7297376401434 300 212.1248953243522C300 216.5224920527809 298.2975471345296 220.703013845641 295.2048390637322 223.7884047837787z" />
  </font>
</defs>
</svg>
